R 4 Finance
…
---

# Solución tarea

.pull-left[

```r
stocks %$% 
  returns(precios = dax, type = 'log')
```

```
## # A tibble: 1,860 x 1
##       value
##       <dbl>
##  1  0      
##  2 -0.00933
##  3 -0.00442
##  4  0.00900
##  5 -0.00178
##  6 -0.00468
##  7  0.0124 
##  8  0.00576
##  9 -0.00287
## 10  0.00635
## # ... with 1,850 more rows
```
]
---

# Solución tarea

.pull-left[ 

```r
stocks %$% 
  returns(precios = dax, type = 'arithmetic')
```

```
## # A tibble: 1,860 x 1
##       value
##       <dbl>
##  1  0      
##  2 -0.00928
##  3 -0.00441
##  4  0.00904
##  5 -0.00178
##  6 -0.00467
##  7  0.0125 
##  8  0.00578
##  9 -0.00287
## 10  0.00637
## # ... with 1,850 more rows
```
…
---

# Un ejemplo práctico

```r
baby_names %>% 
  select(year,name,n)
```

```
## # A tibble: 1,924,665 x 3
##     year name          n
##    <dbl> <chr>     <int>
##  1  1880 Mary       7065
##  2  1880 Anna       2604
##  3  1880 Emma       2003
##  4  1880 Elizabeth  1939
##  5  1880 Minnie     1746
##  6  1880 Margaret   1578
##  7  1880 Ida        1472
##  8  1880 Alice      1414
##  9  1880 Bertha     1320
## 10  1880 Sarah      1288
## # ... with 1,924,655 more rows
```

---

# Un ejemplo práctico

```r
baby_names %>% 
  select(-prop)
```

```
## # A tibble: 1,924,665 x 4
##     year sex   name          n
##    <dbl> <chr> <chr>     <int>
##  1  1880 F     Mary       7065
##  2  1880 F     Anna       2604
##  3  1880 F     Emma       2003
##  4  1880 F     Elizabeth  1939
##  5  1880 F     Minnie     1746
##  6  1880 F     Margaret   1578
##  7  1880 F     Ida        1472
##  8  1880 F     Alice      1414
##  9  1880 F     Bertha     1320
## 10  1880 F     Sarah      1288
## # ... with 1,924,655 more rows
```

---

# Un ejemplo práctico

```r
baby_names %>% 
  filter(sex == 'F')
```

```
## # A tibble: 1,138,293 x 5
##     year sex   name          n   prop
##    <dbl> <chr> <chr>     <int>  <dbl>
##  1  1880 F     Mary       7065 0.0724
##  2  1880 F     Anna       2604 0.0267
##  3  1880 F     Emma       2003 0.0205
##  4  1880 F     Elizabeth  1939 0.0199
##  5  1880 F     Minnie     1746 0.0179
##  6  1880 F     Margaret   1578 0.0162
##  7  1880 F     Ida        1472 0.0151
##  8  1880 F     Alice      1414 0.0145
##  9  1880 F     Bertha     1320 0.0135
## 10  1880 F     Sarah      1288 0.0132
## # ... with 1,138,283 more rows
```

---

# Un ejemplo práctico

```r
baby_names %>% 
  filter(sex == 'F' & name == 'Ida')
```

```
## # A tibble: 138 x 5
##     year sex   name      n   prop
##    <dbl> <chr> <chr> <int>  <dbl>
##  1  1880 F     Ida    1472 0.0151
##  2  1881 F     Ida    1439 0.0146
##  3  1882 F     Ida    1673 0.0145
##  4  1883 F     Ida    1634 0.0136
##  5  1884 F     Ida    1882 0.0137
##  6  1885 F     Ida    1854 0.0131
##  7  1886 F     Ida    2049 0.0133
##  8  1887 F     Ida    1929 0.0124
##  9  1888 F     Ida    2229 0.0118
## 10  1889 F     Ida    2122 0.0112
## # ... with 128 more rows
```
…
# Un ejemplo práctico

```r
baby_names %>% 
  group_by(name) %>% 
  summarise(media = mean(n))
```

```
## `summarise()` ungrouping output (override with `.groups` argument)
```

```
## # A tibble: 97,310 x 2
##    name       media
##    <chr>      <dbl>
##  1 Aaban      10.7 
##  2 Aabha       7   
##  3 Aabid       5   
##  4 Aabir       5   
##  5 Aabriella   6.4 
##  6 Aada        5   
##  7 Aadam       9.77
##  8 Aadan      11.8 
##  9 Aadarsh    11.7 
## 10 Aaden     259.  
## # ... with 97,300 more rows
```
…
# Un ejemplo práctico

```r
baby_names %>% 
  filter(sex == 'F' & name == 'Ida') %>% 
  group_by(year) %>% 
  summarise(media = mean(n))
```

```
## `summarise()` ungrouping output (override with `.groups` argument)
```

```
## # A tibble: 138 x 2
##     year media
##    <dbl> <dbl>
##  1  1880  1472
##  2  1881  1439
##  3  1882  1673
##  4  1883  1634
##  5  1884  1882
##  6  1885  1854
##  7  1886  2049
##  8  1887  1929
##  9  1888  2229
## 10  1889  2122
## # ... with 128 more rows
```
…
--

```r
crimes <- USArrests 
crimes$state <- rownames(crimes)
crimes <- crimes %>% 
  as_tibble() %>% 
  janitor::clean_names()

crimes
```

```
## # A tibble: 50 x 5
##    murder assault urban_pop  rape state      
##     <dbl>   <int>     <int> <dbl> <chr>      
##  1   13.2     236        58  21.2 Alabama    
##  2   10       263        48  44.5 Alaska     
##  3    8.1     294        80  31   Arizona    
##  4    8.8     190        50  19.5 Arkansas   
##  5    9       276        91  40.6 California 
##  6    7.9     204        78  38.7 Colorado   
##  7    3.3     110        77  11.1 Connecticut
##  8    5.9     238        72  15.8 Delaware   
##  9   15.4     335        80  31.9 Florida    
## 10   17.4     211        60  25.8 Georgia    
## # ... with 40 more rows
```
…
--

### ¿Cómo corregimos esto?

--

### La mayoría de las veces nos vamos a encontrar este tipo de bases de datos y lo que queremos es pasarlas a formato *long* de tal manera que se vean así:

---

# Limpiea de Datos

```
## # A tibble: 200 x 3
##    state   crime     count
##    <chr>   <chr>     <dbl>
##  1 Alabama murder     13.2
##  2 Alabama assault   236  
##  3 Alabama urban_pop  58  
##  4 Alabama rape       21.2
##  5 Alaska  murder     10  
##  6 Alaska  assault   263  
##  7 Alaska  urban_pop  48  
##  8 Alaska  rape       44.5
##  9 Arizona murder      8.1
## 10 Arizona assault   294  
## # ... with 190 more rows
```
…
